{"_id":{"$oid":"5ef70fba7e0bd309a8e41440"},"temperature":13,"dateTime":{"$date":"2020-06-27T09:22:02.982Z"}}
{"_id":{"$oid":"5ef710897e0bd309a8e41441"},"temperature":15,"dateTime":{"$date":"2020-06-27T09:25:29.793Z"}}
{"_id":{"$oid":"5ef710c57e0bd309a8e41442"},"temperature":15,"dateTime":{"$date":"2020-06-27T09:26:29.644Z"}}
{"_id":{"$oid":"5ef710da7e0bd309a8e41443"},"temperature":17,"dateTime":{"$date":"2020-06-27T09:26:50.849Z"}}
{"_id":{"$oid":"5ef710ee7e0bd309a8e41444"},"temperature":20,"dateTime":{"$date":"2020-06-27T09:27:10.848Z"}}
{"_id":{"$oid":"5ef711027e0bd309a8e41445"},"temperature":24,"dateTime":{"$date":"2020-06-27T09:27:30.850Z"}}
{"_id":{"$oid":"5ef711167e0bd309a8e41446"},"temperature":24,"dateTime":{"$date":"2020-06-27T09:27:50.837Z"}}
{"_id":{"$oid":"5ef7112b7e0bd309a8e41447"},"temperature":25,"dateTime":{"$date":"2020-06-27T09:28:11.045Z"}}
{"_id":{"$oid":"5ef7113e7e0bd309a8e41448"},"temperature":25,"dateTime":{"$date":"2020-06-27T09:28:30.847Z"}}
{"_id":{"$oid":"5ef711537e0bd309a8e41449"},"temperature":23,"dateTime":{"$date":"2020-06-27T09:28:51.082Z"}}
{"_id":{"$oid":"5ef711667e0bd309a8e4144a"},"temperature":21,"dateTime":{"$date":"2020-06-27T09:29:10.875Z"}}
{"_id":{"$oid":"5ef9ec36fdf37409c83ccd41"},"temperature":2,"dateTime":{"$date":"2020-06-29T13:27:18.903Z"}}
{"_id":{"$oid":"5ef9ec40fdf37409c83ccd42"},"temperature":26,"dateTime":{"$date":"2020-06-29T13:27:28.613Z"}}
{"_id":{"$oid":"5ef9ec4afdf37409c83ccd43"},"temperature":10,"dateTime":{"$date":"2020-06-29T13:27:38.613Z"}}
{"_id":{"$oid":"5ef9ec55fdf37409c83ccd44"},"temperature":7,"dateTime":{"$date":"2020-06-29T13:27:49.511Z"}}
{"_id":{"$oid":"5ef9ec5efdf37409c83ccd45"},"temperature":7,"dateTime":{"$date":"2020-06-29T13:27:58.929Z"}}
{"_id":{"$oid":"5ef9ec72fdf37409c83ccd46"},"temperature":0,"dateTime":{"$date":"2020-06-29T13:28:18.149Z"}}
{"_id":{"$oid":"5ef9ec7dfdf37409c83ccd47"},"temperature":0,"dateTime":{"$date":"2020-06-29T13:28:29.269Z"}}
{"_id":{"$oid":"5ef9ec86fdf37409c83ccd48"},"temperature":12,"dateTime":{"$date":"2020-06-29T13:28:38.171Z"}}
{"_id":{"$oid":"5ef9ec90fdf37409c83ccd49"},"temperature":12,"dateTime":{"$date":"2020-06-29T13:28:48.184Z"}}
{"_id":{"$oid":"5ef9ec9afdf37409c83ccd4a"},"temperature":19,"dateTime":{"$date":"2020-06-29T13:28:58.347Z"}}
{"_id":{"$oid":"5ef9eca5fdf37409c83ccd4b"},"temperature":12,"dateTime":{"$date":"2020-06-29T13:29:09.277Z"}}
{"_id":{"$oid":"5ef9ecaefdf37409c83ccd4c"},"temperature":12,"dateTime":{"$date":"2020-06-29T13:29:18.175Z"}}
{"_id":{"$oid":"5ef9ecb8fdf37409c83ccd4d"},"temperature":1,"dateTime":{"$date":"2020-06-29T13:29:28.313Z"}}
{"_id":{"$oid":"5ef9ecc9fdf37409c83ccd4e"},"temperature":1,"dateTime":{"$date":"2020-06-29T13:29:45.995Z"}}
{"_id":{"$oid":"5ef9ecd4fdf37409c83ccd4f"},"temperature":12,"dateTime":{"$date":"2020-06-29T13:29:56.419Z"}}
{"_id":{"$oid":"5ef9ece1fdf37409c83ccd50"},"temperature":12,"dateTime":{"$date":"2020-06-29T13:30:09.339Z"}}
{"_id":{"$oid":"5ef9ece9fdf37409c83ccd51"},"temperature":17,"dateTime":{"$date":"2020-06-29T13:30:17.648Z"}}
{"_id":{"$oid":"5ef9ecf4fdf37409c83ccd52"},"temperature":17,"dateTime":{"$date":"2020-06-29T13:30:28.048Z"}}
{"_id":{"$oid":"5ef9ecfdfdf37409c83ccd53"},"temperature":17,"dateTime":{"$date":"2020-06-29T13:30:37.209Z"}}
{"_id":{"$oid":"5ef9ed06fdf37409c83ccd54"},"temperature":34,"dateTime":{"$date":"2020-06-29T13:30:46.286Z"}}
{"_id":{"$oid":"5ef9ed0ffdf37409c83ccd55"},"temperature":34,"dateTime":{"$date":"2020-06-29T13:30:55.991Z"}}
{"_id":{"$oid":"5ef9ed1bfdf37409c83ccd56"},"temperature":34,"dateTime":{"$date":"2020-06-29T13:31:07.861Z"}}
{"_id":{"$oid":"5ef9ed24fdf37409c83ccd57"},"temperature":34,"dateTime":{"$date":"2020-06-29T13:31:16.005Z"}}
{"_id":{"$oid":"5ef9ed2ffdf37409c83ccd58"},"temperature":29,"dateTime":{"$date":"2020-06-29T13:31:27.355Z"}}
{"_id":{"$oid":"5ef9ed41fdf37409c83ccd59"},"temperature":0,"dateTime":{"$date":"2020-06-29T13:31:45.969Z"}}
{"_id":{"$oid":"5ef9ed4bfdf37409c83ccd5a"},"temperature":0,"dateTime":{"$date":"2020-06-29T13:31:55.981Z"}}
{"_id":{"$oid":"5ef9ed56fdf37409c83ccd5b"},"temperature":33,"dateTime":{"$date":"2020-06-29T13:32:06.025Z"}}
{"_id":{"$oid":"5ef9ed60fdf37409c83ccd5c"},"temperature":33,"dateTime":{"$date":"2020-06-29T13:32:16.061Z"}}
{"_id":{"$oid":"5ef9ed6afdf37409c83ccd5d"},"temperature":27,"dateTime":{"$date":"2020-06-29T13:32:26.137Z"}}
{"_id":{"$oid":"5ef9ed74fdf37409c83ccd5e"},"temperature":27,"dateTime":{"$date":"2020-06-29T13:32:36.005Z"}}
{"_id":{"$oid":"5ef9ed7efdf37409c83ccd5f"},"temperature":3,"dateTime":{"$date":"2020-06-29T13:32:46.257Z"}}
{"_id":{"$oid":"5ef9ed88fdf37409c83ccd60"},"temperature":3,"dateTime":{"$date":"2020-06-29T13:32:56.072Z"}}
{"_id":{"$oid":"5ef9ed92fdf37409c83ccd61"},"temperature":34,"dateTime":{"$date":"2020-06-29T13:33:06.008Z"}}
{"_id":{"$oid":"5ef9ed9cfdf37409c83ccd62"},"temperature":29,"dateTime":{"$date":"2020-06-29T13:33:16.303Z"}}
{"_id":{"$oid":"5ef9eda6fdf37409c83ccd63"},"temperature":29,"dateTime":{"$date":"2020-06-29T13:33:26.020Z"}}
{"_id":{"$oid":"5ef9edb0fdf37409c83ccd64"},"temperature":29,"dateTime":{"$date":"2020-06-29T13:33:36.109Z"}}
{"_id":{"$oid":"5ef9edbafdf37409c83ccd65"},"temperature":8,"dateTime":{"$date":"2020-06-29T13:33:46.577Z"}}
{"_id":{"$oid":"5ef9edc4fdf37409c83ccd66"},"temperature":8,"dateTime":{"$date":"2020-06-29T13:33:56.333Z"}}
{"_id":{"$oid":"5ef9edcefdf37409c83ccd67"},"temperature":20,"dateTime":{"$date":"2020-06-29T13:34:06.011Z"}}
{"_id":{"$oid":"5ef9edd8fdf37409c83ccd68"},"temperature":29,"dateTime":{"$date":"2020-06-29T13:34:16.397Z"}}
{"_id":{"$oid":"5ef9ede2fdf37409c83ccd69"},"temperature":29,"dateTime":{"$date":"2020-06-29T13:34:26.407Z"}}
{"_id":{"$oid":"5ef9edecfdf37409c83ccd6a"},"temperature":10,"dateTime":{"$date":"2020-06-29T13:34:36.373Z"}}
{"_id":{"$oid":"5ef9edf6fdf37409c83ccd6b"},"temperature":10,"dateTime":{"$date":"2020-06-29T13:34:46.014Z"}}
{"_id":{"$oid":"5ef9ee00fdf37409c83ccd6c"},"temperature":10,"dateTime":{"$date":"2020-06-29T13:34:56.232Z"}}
{"_id":{"$oid":"5ef9ee0bfdf37409c83ccd6d"},"temperature":6,"dateTime":{"$date":"2020-06-29T13:35:07.001Z"}}
{"_id":{"$oid":"5ef9ef324a85c2099b7aad3d"},"temperature":0,"dateTime":{"$date":"2020-06-29T13:40:02.793Z"}}
{"_id":{"$oid":"5ef9ef3c4a85c2099b7aad3e"},"temperature":0,"dateTime":{"$date":"2020-06-29T13:40:12.781Z"}}
{"_id":{"$oid":"5ef9ef464a85c2099b7aad3f"},"temperature":36,"dateTime":{"$date":"2020-06-29T13:40:22.879Z"}}
{"_id":{"$oid":"5ef9ef504a85c2099b7aad40"},"temperature":36,"dateTime":{"$date":"2020-06-29T13:40:32.783Z"}}
{"_id":{"$oid":"5ef9ef5a4a85c2099b7aad41"},"temperature":19,"dateTime":{"$date":"2020-06-29T13:40:42.802Z"}}
{"_id":{"$oid":"5ef9ef654a85c2099b7aad42"},"temperature":19,"dateTime":{"$date":"2020-06-29T13:40:53.060Z"}}
{"_id":{"$oid":"5ef9ef6e4a85c2099b7aad43"},"temperature":6,"dateTime":{"$date":"2020-06-29T13:41:02.914Z"}}
{"_id":{"$oid":"5ef9ef794a85c2099b7aad44"},"temperature":39,"dateTime":{"$date":"2020-06-29T13:41:13.731Z"}}
{"_id":{"$oid":"5ef9ef834a85c2099b7aad45"},"temperature":39,"dateTime":{"$date":"2020-06-29T13:41:23.469Z"}}
{"_id":{"$oid":"5ef9ef8c4a85c2099b7aad46"},"temperature":39,"dateTime":{"$date":"2020-06-29T13:41:32.841Z"}}
{"_id":{"$oid":"5ef9ef974a85c2099b7aad47"},"temperature":37,"dateTime":{"$date":"2020-06-29T13:41:43.107Z"}}
{"_id":{"$oid":"5ef9efa04a85c2099b7aad48"},"temperature":37,"dateTime":{"$date":"2020-06-29T13:41:52.800Z"}}
{"_id":{"$oid":"5ef9efaa4a85c2099b7aad49"},"temperature":25,"dateTime":{"$date":"2020-06-29T13:42:02.800Z"}}
{"_id":{"$oid":"5ef9efb54a85c2099b7aad4a"},"temperature":27,"dateTime":{"$date":"2020-06-29T13:42:13.423Z"}}
{"_id":{"$oid":"5ef9efbe4a85c2099b7aad4b"},"temperature":27,"dateTime":{"$date":"2020-06-29T13:42:22.869Z"}}
{"_id":{"$oid":"5ef9efc94a85c2099b7aad4c"},"temperature":27,"dateTime":{"$date":"2020-06-29T13:42:33.160Z"}}
{"_id":{"$oid":"5ef9efd34a85c2099b7aad4d"},"temperature":1,"dateTime":{"$date":"2020-06-29T13:42:43.323Z"}}
{"_id":{"$oid":"5ef9efdc4a85c2099b7aad4e"},"temperature":1,"dateTime":{"$date":"2020-06-29T13:42:52.923Z"}}
{"_id":{"$oid":"5ef9efe74a85c2099b7aad4f"},"temperature":22,"dateTime":{"$date":"2020-06-29T13:43:03.415Z"}}
{"_id":{"$oid":"5ef9eff14a85c2099b7aad50"},"temperature":22,"dateTime":{"$date":"2020-06-29T13:43:13.835Z"}}
{"_id":{"$oid":"5ef9f00e4a85c2099b7aad51"},"temperature":0,"dateTime":{"$date":"2020-06-29T13:43:42.794Z"}}
{"_id":{"$oid":"5ef9f0184a85c2099b7aad52"},"temperature":0,"dateTime":{"$date":"2020-06-29T13:43:52.854Z"}}
{"_id":{"$oid":"5ef9f0224a85c2099b7aad53"},"temperature":24,"dateTime":{"$date":"2020-06-29T13:44:02.840Z"}}
{"_id":{"$oid":"5ef9f02c4a85c2099b7aad54"},"temperature":24,"dateTime":{"$date":"2020-06-29T13:44:12.803Z"}}
{"_id":{"$oid":"5ef9f0364a85c2099b7aad55"},"temperature":37,"dateTime":{"$date":"2020-06-29T13:44:22.899Z"}}
{"_id":{"$oid":"5ef9f0404a85c2099b7aad56"},"temperature":37,"dateTime":{"$date":"2020-06-29T13:44:32.919Z"}}
{"_id":{"$oid":"5ef9f04a4a85c2099b7aad57"},"temperature":8,"dateTime":{"$date":"2020-06-29T13:44:42.836Z"}}
{"_id":{"$oid":"5ef9f0544a85c2099b7aad58"},"temperature":8,"dateTime":{"$date":"2020-06-29T13:44:52.842Z"}}
{"_id":{"$oid":"5ef9f05e4a85c2099b7aad59"},"temperature":11,"dateTime":{"$date":"2020-06-29T13:45:02.928Z"}}
{"_id":{"$oid":"5ef9f0684a85c2099b7aad5a"},"temperature":11,"dateTime":{"$date":"2020-06-29T13:45:12.955Z"}}
{"_id":{"$oid":"5ef9f0734a85c2099b7aad5b"},"temperature":7,"dateTime":{"$date":"2020-06-29T13:45:23.243Z"}}
{"_id":{"$oid":"5ef9f07c4a85c2099b7aad5c"},"temperature":7,"dateTime":{"$date":"2020-06-29T13:45:32.929Z"}}
{"_id":{"$oid":"5ef9f0874a85c2099b7aad5d"},"temperature":21,"dateTime":{"$date":"2020-06-29T13:45:43.435Z"}}
{"_id":{"$oid":"5ef9f0904a85c2099b7aad5e"},"temperature":0,"dateTime":{"$date":"2020-06-29T13:45:52.839Z"}}
{"_id":{"$oid":"5ef9f09a4a85c2099b7aad5f"},"temperature":9,"dateTime":{"$date":"2020-06-29T13:46:02.927Z"}}
{"_id":{"$oid":"5ef9f0a44a85c2099b7aad60"},"temperature":9,"dateTime":{"$date":"2020-06-29T13:46:12.849Z"}}
{"_id":{"$oid":"5ef9f0ae4a85c2099b7aad61"},"temperature":24,"dateTime":{"$date":"2020-06-29T13:46:22.930Z"}}
{"_id":{"$oid":"5ef9f0b94a85c2099b7aad62"},"temperature":10,"dateTime":{"$date":"2020-06-29T13:46:33.188Z"}}
{"_id":{"$oid":"5ef9f0c34a85c2099b7aad63"},"temperature":10,"dateTime":{"$date":"2020-06-29T13:46:43.083Z"}}
{"_id":{"$oid":"5ef9f0cc4a85c2099b7aad64"},"temperature":10,"dateTime":{"$date":"2020-06-29T13:46:52.888Z"}}
{"_id":{"$oid":"5ef9f0d64a85c2099b7aad65"},"temperature":24,"dateTime":{"$date":"2020-06-29T13:47:02.859Z"}}
{"_id":{"$oid":"5ef9f0e04a85c2099b7aad66"},"temperature":24,"dateTime":{"$date":"2020-06-29T13:47:12.872Z"}}
{"_id":{"$oid":"5ef9f0eb4a85c2099b7aad67"},"temperature":37,"dateTime":{"$date":"2020-06-29T13:47:23.107Z"}}
{"_id":{"$oid":"5ef9f0fe4a85c2099b7aad68"},"temperature":0,"dateTime":{"$date":"2020-06-29T13:47:42.861Z"}}
{"_id":{"$oid":"5ef9f1084a85c2099b7aad69"},"temperature":0,"dateTime":{"$date":"2020-06-29T13:47:52.867Z"}}
{"_id":{"$oid":"5ef9f1124a85c2099b7aad6a"},"temperature":35,"dateTime":{"$date":"2020-06-29T13:48:02.878Z"}}
{"_id":{"$oid":"5ef9f11c4a85c2099b7aad6b"},"temperature":35,"dateTime":{"$date":"2020-06-29T13:48:12.911Z"}}
{"_id":{"$oid":"5ef9f1264a85c2099b7aad6c"},"temperature":25,"dateTime":{"$date":"2020-06-29T13:48:22.914Z"}}
{"_id":{"$oid":"5ef9f1314a85c2099b7aad6d"},"temperature":24,"dateTime":{"$date":"2020-06-29T13:48:33.173Z"}}
{"_id":{"$oid":"5ef9f13b4a85c2099b7aad6e"},"temperature":24,"dateTime":{"$date":"2020-06-29T13:48:43.014Z"}}
{"_id":{"$oid":"5ef9f1444a85c2099b7aad6f"},"temperature":24,"dateTime":{"$date":"2020-06-29T13:48:52.999Z"}}
{"_id":{"$oid":"5ef9f14e4a85c2099b7aad70"},"temperature":28,"dateTime":{"$date":"2020-06-29T13:49:02.915Z"}}
{"_id":{"$oid":"5ef9f1584a85c2099b7aad71"},"temperature":28,"dateTime":{"$date":"2020-06-29T13:49:12.907Z"}}
{"_id":{"$oid":"5ef9f1624a85c2099b7aad72"},"temperature":24,"dateTime":{"$date":"2020-06-29T13:49:22.935Z"}}
{"_id":{"$oid":"5ef9f16c4a85c2099b7aad73"},"temperature":24,"dateTime":{"$date":"2020-06-29T13:49:32.942Z"}}
{"_id":{"$oid":"5ef9f1774a85c2099b7aad74"},"temperature":39,"dateTime":{"$date":"2020-06-29T13:49:43.158Z"}}
{"_id":{"$oid":"5ef9f1814a85c2099b7aad75"},"temperature":39,"dateTime":{"$date":"2020-06-29T13:49:53.055Z"}}
{"_id":{"$oid":"5ef9f18b4a85c2099b7aad76"},"temperature":35,"dateTime":{"$date":"2020-06-29T13:50:03.622Z"}}
{"_id":{"$oid":"5ef9f1954a85c2099b7aad77"},"temperature":35,"dateTime":{"$date":"2020-06-29T13:50:13.128Z"}}
{"_id":{"$oid":"5ef9f19f4a85c2099b7aad78"},"temperature":14,"dateTime":{"$date":"2020-06-29T13:50:23.204Z"}}
{"_id":{"$oid":"5ef9f1a94a85c2099b7aad79"},"temperature":14,"dateTime":{"$date":"2020-06-29T13:50:33.638Z"}}
{"_id":{"$oid":"5ef9f1b34a85c2099b7aad7a"},"temperature":37,"dateTime":{"$date":"2020-06-29T13:50:43.447Z"}}
{"_id":{"$oid":"5ef9f1bc4a85c2099b7aad7b"},"temperature":37,"dateTime":{"$date":"2020-06-29T13:50:52.923Z"}}
{"_id":{"$oid":"5ef9f1c74a85c2099b7aad7c"},"temperature":4,"dateTime":{"$date":"2020-06-29T13:51:03.283Z"}}
{"_id":{"$oid":"5ef9f1d14a85c2099b7aad7d"},"temperature":4,"dateTime":{"$date":"2020-06-29T13:51:13.042Z"}}
{"_id":{"$oid":"5ef9f1db4a85c2099b7aad7e"},"temperature":32,"dateTime":{"$date":"2020-06-29T13:51:23.656Z"}}
{"_id":{"$oid":"5ef9f1e54a85c2099b7aad7f"},"temperature":32,"dateTime":{"$date":"2020-06-29T13:51:33.521Z"}}
{"_id":{"$oid":"5ef9f1ef4a85c2099b7aad80"},"temperature":6,"dateTime":{"$date":"2020-06-29T13:51:43.014Z"}}
{"_id":{"$oid":"5ef9f1f94a85c2099b7aad81"},"temperature":6,"dateTime":{"$date":"2020-06-29T13:51:53.438Z"}}
{"_id":{"$oid":"5ef9f2044a85c2099b7aad82"},"temperature":30,"dateTime":{"$date":"2020-06-29T13:52:04.555Z"}}
{"_id":{"$oid":"5ef9f20c4a85c2099b7aad83"},"temperature":30,"dateTime":{"$date":"2020-06-29T13:52:12.971Z"}}
{"_id":{"$oid":"5ef9f2194a85c2099b7aad84"},"temperature":8,"dateTime":{"$date":"2020-06-29T13:52:25.239Z"}}
{"_id":{"$oid":"5ef9f2214a85c2099b7aad85"},"temperature":4,"dateTime":{"$date":"2020-06-29T13:52:33.240Z"}}
{"_id":{"$oid":"5ef9f22b4a85c2099b7aad86"},"temperature":4,"dateTime":{"$date":"2020-06-29T13:52:43.194Z"}}
{"_id":{"$oid":"5ef9f2354a85c2099b7aad87"},"temperature":4,"dateTime":{"$date":"2020-06-29T13:52:53.814Z"}}
{"_id":{"$oid":"5ef9f2404a85c2099b7aad88"},"temperature":29,"dateTime":{"$date":"2020-06-29T13:53:04.033Z"}}
{"_id":{"$oid":"5ef9f24a4a85c2099b7aad89"},"temperature":29,"dateTime":{"$date":"2020-06-29T13:53:14.095Z"}}
{"_id":{"$oid":"5ef9f2534a85c2099b7aad8a"},"temperature":4,"dateTime":{"$date":"2020-06-29T13:53:23.386Z"}}
{"_id":{"$oid":"5ef9f25e4a85c2099b7aad8b"},"temperature":29,"dateTime":{"$date":"2020-06-29T13:53:34.824Z"}}
{"_id":{"$oid":"5ef9f2664a85c2099b7aad8c"},"temperature":29,"dateTime":{"$date":"2020-06-29T13:53:42.987Z"}}
{"_id":{"$oid":"5ef9f2724a85c2099b7aad8d"},"temperature":25,"dateTime":{"$date":"2020-06-29T13:53:54.119Z"}}
{"_id":{"$oid":"5ef9f27e4a85c2099b7aad8e"},"temperature":25,"dateTime":{"$date":"2020-06-29T13:54:06.392Z"}}
{"_id":{"$oid":"5ef9f2864a85c2099b7aad8f"},"temperature":9,"dateTime":{"$date":"2020-06-29T13:54:14.719Z"}}
{"_id":{"$oid":"5ef9f28f4a85c2099b7aad90"},"temperature":9,"dateTime":{"$date":"2020-06-29T13:54:23.998Z"}}
{"_id":{"$oid":"5ef9f29b4a85c2099b7aad91"},"temperature":37,"dateTime":{"$date":"2020-06-29T13:54:35.156Z"}}
{"_id":{"$oid":"5ef9f2a44a85c2099b7aad92"},"temperature":37,"dateTime":{"$date":"2020-06-29T13:54:44.519Z"}}
{"_id":{"$oid":"5ef9f2ad4a85c2099b7aad93"},"temperature":9,"dateTime":{"$date":"2020-06-29T13:54:53.159Z"}}
{"_id":{"$oid":"5ef9f2b74a85c2099b7aad94"},"temperature":9,"dateTime":{"$date":"2020-06-29T13:55:03.856Z"}}
{"_id":{"$oid":"5ef9f2c04a85c2099b7aad95"},"temperature":26,"dateTime":{"$date":"2020-06-29T13:55:12.996Z"}}
{"_id":{"$oid":"5ef9f2cd4a85c2099b7aad96"},"temperature":26,"dateTime":{"$date":"2020-06-29T13:55:25.807Z"}}
{"_id":{"$oid":"5ef9f2d74a85c2099b7aad97"},"temperature":1,"dateTime":{"$date":"2020-06-29T13:55:35.802Z"}}
{"_id":{"$oid":"5ef9f2e04a85c2099b7aad98"},"temperature":1,"dateTime":{"$date":"2020-06-29T13:55:44.539Z"}}
{"_id":{"$oid":"5ef9f2ee4a85c2099b7aad99"},"temperature":1,"dateTime":{"$date":"2020-06-29T13:55:58.737Z"}}
{"_id":{"$oid":"5ef9f2f84a85c2099b7aad9a"},"temperature":7,"dateTime":{"$date":"2020-06-29T13:56:08.664Z"}}
{"_id":{"$oid":"5ef9f3044a85c2099b7aad9b"},"temperature":7,"dateTime":{"$date":"2020-06-29T13:56:20.771Z"}}
{"_id":{"$oid":"5ef9f30c4a85c2099b7aad9c"},"temperature":7,"dateTime":{"$date":"2020-06-29T13:56:28.272Z"}}
{"_id":{"$oid":"5ef9f3184a85c2099b7aad9d"},"temperature":39,"dateTime":{"$date":"2020-06-29T13:56:40.980Z"}}
{"_id":{"$oid":"5ef9f3234a85c2099b7aad9e"},"temperature":20,"dateTime":{"$date":"2020-06-29T13:56:51.031Z"}}
{"_id":{"$oid":"5ef9f32c4a85c2099b7aad9f"},"temperature":20,"dateTime":{"$date":"2020-06-29T13:57:00.771Z"}}
{"_id":{"$oid":"5ef9f3384a85c2099b7aada0"},"temperature":24,"dateTime":{"$date":"2020-06-29T13:57:12.693Z"}}
{"_id":{"$oid":"5ef9f3414a85c2099b7aada1"},"temperature":24,"dateTime":{"$date":"2020-06-29T13:57:21.298Z"}}
{"_id":{"$oid":"5ef9f34a4a85c2099b7aada2"},"temperature":23,"dateTime":{"$date":"2020-06-29T13:57:30.060Z"}}
{"_id":{"$oid":"5ef9f3524a85c2099b7aada3"},"temperature":23,"dateTime":{"$date":"2020-06-29T13:57:38.458Z"}}
{"_id":{"$oid":"5ef9f35c4a85c2099b7aada4"},"temperature":27,"dateTime":{"$date":"2020-06-29T13:57:48.467Z"}}
{"_id":{"$oid":"5ef9f3684a85c2099b7aada5"},"temperature":27,"dateTime":{"$date":"2020-06-29T13:58:00.341Z"}}
{"_id":{"$oid":"5ef9f3724a85c2099b7aada6"},"temperature":26,"dateTime":{"$date":"2020-06-29T13:58:10.545Z"}}
{"_id":{"$oid":"5ef9f37b4a85c2099b7aada7"},"temperature":26,"dateTime":{"$date":"2020-06-29T13:58:19.877Z"}}
{"_id":{"$oid":"5ef9f3854a85c2099b7aada8"},"temperature":20,"dateTime":{"$date":"2020-06-29T13:58:29.959Z"}}
{"_id":{"$oid":"5ef9f38e4a85c2099b7aada9"},"temperature":20,"dateTime":{"$date":"2020-06-29T13:58:38.277Z"}}
{"_id":{"$oid":"5ef9f3984a85c2099b7aadaa"},"temperature":20,"dateTime":{"$date":"2020-06-29T13:58:48.214Z"}}
{"_id":{"$oid":"5ef9f3a24a85c2099b7aadab"},"temperature":38,"dateTime":{"$date":"2020-06-29T13:58:58.852Z"}}
{"_id":{"$oid":"5ef9f3ac4a85c2099b7aadac"},"temperature":38,"dateTime":{"$date":"2020-06-29T13:59:08.198Z"}}
{"_id":{"$oid":"5ef9f3ba4a85c2099b7aadad"},"temperature":7,"dateTime":{"$date":"2020-06-29T13:59:22.495Z"}}
{"_id":{"$oid":"5ef9f3c14a85c2099b7aadae"},"temperature":7,"dateTime":{"$date":"2020-06-29T13:59:29.595Z"}}
{"_id":{"$oid":"5ef9f3cd4a85c2099b7aadaf"},"temperature":34,"dateTime":{"$date":"2020-06-29T13:59:41.033Z"}}
{"_id":{"$oid":"5ef9f3d54a85c2099b7aadb0"},"temperature":26,"dateTime":{"$date":"2020-06-29T13:59:49.250Z"}}
{"_id":{"$oid":"5ef9f3ec4a85c2099b7aadb1"},"temperature":26,"dateTime":{"$date":"2020-06-29T14:00:12.267Z"}}
{"_id":{"$oid":"5ef9f3f14a85c2099b7aadb2"},"temperature":26,"dateTime":{"$date":"2020-06-29T14:00:17.859Z"}}
{"_id":{"$oid":"5ef9f3fb4a85c2099b7aadb3"},"temperature":27,"dateTime":{"$date":"2020-06-29T14:00:27.827Z"}}
{"_id":{"$oid":"5ef9f4054a85c2099b7aadb4"},"temperature":27,"dateTime":{"$date":"2020-06-29T14:00:37.838Z"}}
{"_id":{"$oid":"5ef9f4134a85c2099b7aadb5"},"temperature":4,"dateTime":{"$date":"2020-06-29T14:00:51.567Z"}}
{"_id":{"$oid":"5ef9f4194a85c2099b7aadb6"},"temperature":4,"dateTime":{"$date":"2020-06-29T14:00:57.836Z"}}
{"_id":{"$oid":"5ef9f4254a85c2099b7aadb7"},"temperature":13,"dateTime":{"$date":"2020-06-29T14:01:09.804Z"}}
{"_id":{"$oid":"5ef9f42e4a85c2099b7aadb8"},"temperature":19,"dateTime":{"$date":"2020-06-29T14:01:18.731Z"}}
{"_id":{"$oid":"5ef9f43c4a85c2099b7aadb9"},"temperature":19,"dateTime":{"$date":"2020-06-29T14:01:32.432Z"}}
{"_id":{"$oid":"5ef9f4414a85c2099b7aadba"},"temperature":19,"dateTime":{"$date":"2020-06-29T14:01:37.839Z"}}
{"_id":{"$oid":"5ef9f4504a85c2099b7aadbb"},"temperature":33,"dateTime":{"$date":"2020-06-29T14:01:52.919Z"}}
{"_id":{"$oid":"5ef9f4554a85c2099b7aadbc"},"temperature":33,"dateTime":{"$date":"2020-06-29T14:01:57.994Z"}}
{"_id":{"$oid":"5ef9f45f4a85c2099b7aadbd"},"temperature":2,"dateTime":{"$date":"2020-06-29T14:02:07.871Z"}}
{"_id":{"$oid":"5ef9f46a4a85c2099b7aadbe"},"temperature":2,"dateTime":{"$date":"2020-06-29T14:02:18.344Z"}}
{"_id":{"$oid":"5ef9f4734a85c2099b7aadbf"},"temperature":35,"dateTime":{"$date":"2020-06-29T14:02:27.939Z"}}
{"_id":{"$oid":"5ef9f47f4a85c2099b7aadc0"},"temperature":27,"dateTime":{"$date":"2020-06-29T14:02:39.120Z"}}
{"_id":{"$oid":"5ef9f4874a85c2099b7aadc1"},"temperature":27,"dateTime":{"$date":"2020-06-29T14:02:47.954Z"}}
{"_id":{"$oid":"5ef9f4944a85c2099b7aadc2"},"temperature":28,"dateTime":{"$date":"2020-06-29T14:03:00.483Z"}}
{"_id":{"$oid":"5ef9f4a24a85c2099b7aadc3"},"temperature":28,"dateTime":{"$date":"2020-06-29T14:03:14.187Z"}}
{"_id":{"$oid":"5ef9f4a74a85c2099b7aadc4"},"temperature":28,"dateTime":{"$date":"2020-06-29T14:03:19.499Z"}}
{"_id":{"$oid":"5ef9f4b14a85c2099b7aadc5"},"temperature":11,"dateTime":{"$date":"2020-06-29T14:03:29.499Z"}}
{"_id":{"$oid":"5ef9f4c34a85c2099b7aadc6"},"temperature":11,"dateTime":{"$date":"2020-06-29T14:03:47.263Z"}}
{"_id":{"$oid":"5ef9f4d74a85c2099b7aadc7"},"temperature":11,"dateTime":{"$date":"2020-06-29T14:04:07.394Z"}}
{"_id":{"$oid":"5ef9f4f74a85c2099b7aadc8"},"temperature":34,"dateTime":{"$date":"2020-06-29T14:04:39.082Z"}}
{"_id":{"$oid":"5ef9f4fa4a85c2099b7aadc9"},"temperature":7,"dateTime":{"$date":"2020-06-29T14:04:42.721Z"}}
{"_id":{"$oid":"5ef9f5094a85c2099b7aadca"},"temperature":7,"dateTime":{"$date":"2020-06-29T14:04:57.750Z"}}
{"_id":{"$oid":"5ef9f5144a85c2099b7aadcb"},"temperature":30,"dateTime":{"$date":"2020-06-29T14:05:08.483Z"}}
{"_id":{"$oid":"5ef9f51f4a85c2099b7aadcc"},"temperature":30,"dateTime":{"$date":"2020-06-29T14:05:19.677Z"}}
{"_id":{"$oid":"5ef9f52b4a85c2099b7aadcd"},"temperature":34,"dateTime":{"$date":"2020-06-29T14:05:31.198Z"}}
{"_id":{"$oid":"5ef9f5314a85c2099b7aadce"},"temperature":34,"dateTime":{"$date":"2020-06-29T14:05:37.207Z"}}
{"_id":{"$oid":"5ef9f5354a85c2099b7aadcf"},"temperature":34,"dateTime":{"$date":"2020-06-29T14:05:41.602Z"}}
{"_id":{"$oid":"5ef9f5424a85c2099b7aadd0"},"temperature":5,"dateTime":{"$date":"2020-06-29T14:05:54.686Z"}}
{"_id":{"$oid":"5ef9f5504a85c2099b7aadd1"},"temperature":34,"dateTime":{"$date":"2020-06-29T14:06:08.310Z"}}
{"_id":{"$oid":"5ef9f5574a85c2099b7aadd2"},"temperature":34,"dateTime":{"$date":"2020-06-29T14:06:15.698Z"}}
{"_id":{"$oid":"5ef9f5684a85c2099b7aadd3"},"temperature":34,"dateTime":{"$date":"2020-06-29T14:06:32.080Z"}}
{"_id":{"$oid":"5ef9f57a4a85c2099b7aadd4"},"temperature":34,"dateTime":{"$date":"2020-06-29T14:06:50.334Z"}}
{"_id":{"$oid":"5ef9f5824a85c2099b7aadd5"},"temperature":36,"dateTime":{"$date":"2020-06-29T14:06:58.590Z"}}
{"_id":{"$oid":"5ef9f58b4a85c2099b7aadd6"},"temperature":36,"dateTime":{"$date":"2020-06-29T14:07:07.083Z"}}
{"_id":{"$oid":"5ef9f5954a85c2099b7aadd7"},"temperature":24,"dateTime":{"$date":"2020-06-29T14:07:17.144Z"}}
{"_id":{"$oid":"5ef9f59f4a85c2099b7aadd8"},"temperature":24,"dateTime":{"$date":"2020-06-29T14:07:27.019Z"}}
{"_id":{"$oid":"5ef9f5a94a85c2099b7aadd9"},"temperature":30,"dateTime":{"$date":"2020-06-29T14:07:37.240Z"}}
{"_id":{"$oid":"5ef9f5b34a85c2099b7aadda"},"temperature":30,"dateTime":{"$date":"2020-06-29T14:07:47.051Z"}}
{"_id":{"$oid":"5ef9f5bf4a85c2099b7aaddb"},"temperature":11,"dateTime":{"$date":"2020-06-29T14:07:59.651Z"}}
{"_id":{"$oid":"5ef9f5cd4a85c2099b7aaddc"},"temperature":11,"dateTime":{"$date":"2020-06-29T14:08:13.509Z"}}
{"_id":{"$oid":"5ef9f5d44a85c2099b7aaddd"},"temperature":11,"dateTime":{"$date":"2020-06-29T14:08:20.855Z"}}
{"_id":{"$oid":"5ef9f5dc4a85c2099b7aadde"},"temperature":27,"dateTime":{"$date":"2020-06-29T14:08:28.766Z"}}
{"_id":{"$oid":"5ef9f5ea4a85c2099b7aaddf"},"temperature":27,"dateTime":{"$date":"2020-06-29T14:08:42.996Z"}}
{"_id":{"$oid":"5ef9f5f44a85c2099b7aade0"},"temperature":2,"dateTime":{"$date":"2020-06-29T14:08:52.119Z"}}
{"_id":{"$oid":"5ef9f6054a85c2099b7aade1"},"temperature":2,"dateTime":{"$date":"2020-06-29T14:09:09.284Z"}}
{"_id":{"$oid":"5ef9f60e4a85c2099b7aade2"},"temperature":28,"dateTime":{"$date":"2020-06-29T14:09:18.834Z"}}
{"_id":{"$oid":"5ef9f6204a85c2099b7aade3"},"temperature":14,"dateTime":{"$date":"2020-06-29T14:09:36.270Z"}}
{"_id":{"$oid":"5ef9f6824a85c2099b7aade4"},"temperature":0,"dateTime":{"$date":"2020-06-29T14:11:14.406Z"}}
{"_id":{"$oid":"5ef9f68c4a85c2099b7aade5"},"temperature":0,"dateTime":{"$date":"2020-06-29T14:11:24.417Z"}}
{"_id":{"$oid":"5ef9f6964a85c2099b7aade6"},"temperature":37,"dateTime":{"$date":"2020-06-29T14:11:34.415Z"}}
{"_id":{"$oid":"5ef9f6a04a85c2099b7aade7"},"temperature":37,"dateTime":{"$date":"2020-06-29T14:11:44.407Z"}}
{"_id":{"$oid":"5ef9f6aa4a85c2099b7aade8"},"temperature":30,"dateTime":{"$date":"2020-06-29T14:11:54.469Z"}}
{"_id":{"$oid":"5ef9f6b44a85c2099b7aade9"},"temperature":30,"dateTime":{"$date":"2020-06-29T14:12:04.828Z"}}
{"_id":{"$oid":"5ef9f6be4a85c2099b7aadea"},"temperature":7,"dateTime":{"$date":"2020-06-29T14:12:14.746Z"}}
{"_id":{"$oid":"5ef9f6c84a85c2099b7aadeb"},"temperature":6,"dateTime":{"$date":"2020-06-29T14:12:24.948Z"}}
{"_id":{"$oid":"5ef9f6d24a85c2099b7aadec"},"temperature":6,"dateTime":{"$date":"2020-06-29T14:12:34.611Z"}}
{"_id":{"$oid":"5ef9f6df4a85c2099b7aaded"},"temperature":6,"dateTime":{"$date":"2020-06-29T14:12:47.103Z"}}
{"_id":{"$oid":"5ef9f6e94a85c2099b7aadee"},"temperature":6,"dateTime":{"$date":"2020-06-29T14:12:57.153Z"}}
{"_id":{"$oid":"5ef9f6f34a85c2099b7aadef"},"temperature":26,"dateTime":{"$date":"2020-06-29T14:13:07.923Z"}}
{"_id":{"$oid":"5ef9f6fd4a85c2099b7aadf0"},"temperature":3,"dateTime":{"$date":"2020-06-29T14:13:17.767Z"}}
{"_id":{"$oid":"5ef9f7074a85c2099b7aadf1"},"temperature":3,"dateTime":{"$date":"2020-06-29T14:13:27.799Z"}}
{"_id":{"$oid":"5ef9f7184a85c2099b7aadf2"},"temperature":3,"dateTime":{"$date":"2020-06-29T14:13:44.631Z"}}
{"_id":{"$oid":"5ef9f7224a85c2099b7aadf3"},"temperature":3,"dateTime":{"$date":"2020-06-29T14:13:54.146Z"}}
{"_id":{"$oid":"5ef9f72c4a85c2099b7aadf4"},"temperature":15,"dateTime":{"$date":"2020-06-29T14:14:04.159Z"}}
{"_id":{"$oid":"5ef9f7364a85c2099b7aadf5"},"temperature":15,"dateTime":{"$date":"2020-06-29T14:14:14.153Z"}}
{"_id":{"$oid":"5ef9f7404a85c2099b7aadf6"},"temperature":4,"dateTime":{"$date":"2020-06-29T14:14:24.402Z"}}
{"_id":{"$oid":"5ef9f74a4a85c2099b7aadf7"},"temperature":24,"dateTime":{"$date":"2020-06-29T14:14:34.978Z"}}
{"_id":{"$oid":"5ef9f7544a85c2099b7aadf8"},"temperature":24,"dateTime":{"$date":"2020-06-29T14:14:44.460Z"}}
{"_id":{"$oid":"5ef9f75f4a85c2099b7aadf9"},"temperature":23,"dateTime":{"$date":"2020-06-29T14:14:55.599Z"}}
{"_id":{"$oid":"5ef9f7724a85c2099b7aadfa"},"temperature":23,"dateTime":{"$date":"2020-06-29T14:15:14.600Z"}}
{"_id":{"$oid":"5ef9ffd14a85c2099b7aadfb"},"temperature":0,"dateTime":{"$date":"2020-06-29T14:50:57.358Z"}}
{"_id":{"$oid":"5ef9ffdc4a85c2099b7aadfc"},"temperature":0,"dateTime":{"$date":"2020-06-29T14:51:08.319Z"}}
{"_id":{"$oid":"5efb438f50fc9b0a0a0df716"},"temperature":40,"dateTime":{"$date":"2020-06-30T13:52:15.282Z"}}
{"_id":{"$oid":"5efb440b50fc9b0a0a0df717"},"temperature":40,"dateTime":{"$date":"2020-06-30T13:54:19.184Z"}}
{"_id":{"$oid":"5efb441f50fc9b0a0a0df718"},"temperature":40,"dateTime":{"$date":"2020-06-30T13:54:39.694Z"}}
{"_id":{"$oid":"5efb461150fc9b0a0a0df719"},"temperature":40,"dateTime":{"$date":"2020-06-30T14:02:57.013Z"}}
{"_id":{"$oid":"5efb465050fc9b0a0a0df71a"},"temperature":40,"dateTime":{"$date":"2020-06-30T14:04:00.621Z"}}
{"_id":{"$oid":"5efb465a50fc9b0a0a0df71b"},"temperature":38,"dateTime":{"$date":"2020-06-30T14:04:10.617Z"}}
{"_id":{"$oid":"5efb466450fc9b0a0a0df71c"},"temperature":38,"dateTime":{"$date":"2020-06-30T14:04:20.765Z"}}
{"_id":{"$oid":"5efb466e50fc9b0a0a0df71d"},"temperature":16,"dateTime":{"$date":"2020-06-30T14:04:30.614Z"}}
{"_id":{"$oid":"5efb467850fc9b0a0a0df71e"},"temperature":28,"dateTime":{"$date":"2020-06-30T14:04:40.768Z"}}
{"_id":{"$oid":"5efb468250fc9b0a0a0df71f"},"temperature":21,"dateTime":{"$date":"2020-06-30T14:04:50.725Z"}}
{"_id":{"$oid":"5efb468c50fc9b0a0a0df720"},"temperature":2,"dateTime":{"$date":"2020-06-30T14:05:00.629Z"}}
{"_id":{"$oid":"5efb469650fc9b0a0a0df721"},"temperature":26,"dateTime":{"$date":"2020-06-30T14:05:10.690Z"}}
{"_id":{"$oid":"5efb46a950fc9b0a0a0df722"},"temperature":38,"dateTime":{"$date":"2020-06-30T14:05:29.229Z"}}
{"_id":{"$oid":"5efb46b350fc9b0a0a0df723"},"temperature":13,"dateTime":{"$date":"2020-06-30T14:05:39.239Z"}}
{"_id":{"$oid":"5efb46bd50fc9b0a0a0df724"},"temperature":24,"dateTime":{"$date":"2020-06-30T14:05:49.237Z"}}
{"_id":{"$oid":"5efb46cf50fc9b0a0a0df725"},"temperature":12,"dateTime":{"$date":"2020-06-30T14:06:07.082Z"}}
{"_id":{"$oid":"5efb46d850fc9b0a0a0df726"},"temperature":12,"dateTime":{"$date":"2020-06-30T14:06:16.541Z"}}
{"_id":{"$oid":"5efb46e350fc9b0a0a0df727"},"temperature":18,"dateTime":{"$date":"2020-06-30T14:06:27.157Z"}}
{"_id":{"$oid":"5efb46ec50fc9b0a0a0df728"},"temperature":22,"dateTime":{"$date":"2020-06-30T14:06:36.669Z"}}
{"_id":{"$oid":"5efb46f750fc9b0a0a0df729"},"temperature":8,"dateTime":{"$date":"2020-06-30T14:06:47.014Z"}}
{"_id":{"$oid":"5efb470050fc9b0a0a0df72a"},"temperature":8,"dateTime":{"$date":"2020-06-30T14:06:56.537Z"}}
{"_id":{"$oid":"5efb470a50fc9b0a0a0df72b"},"temperature":13,"dateTime":{"$date":"2020-06-30T14:07:06.527Z"}}
{"_id":{"$oid":"5efb471450fc9b0a0a0df72c"},"temperature":36,"dateTime":{"$date":"2020-06-30T14:07:16.601Z"}}
{"_id":{"$oid":"5efb471e50fc9b0a0a0df72d"},"temperature":36,"dateTime":{"$date":"2020-06-30T14:07:26.525Z"}}
{"_id":{"$oid":"5efb472850fc9b0a0a0df72e"},"temperature":11,"dateTime":{"$date":"2020-06-30T14:07:36.733Z"}}
{"_id":{"$oid":"5efb473350fc9b0a0a0df72f"},"temperature":1,"dateTime":{"$date":"2020-06-30T14:07:47.065Z"}}
{"_id":{"$oid":"5efb473d50fc9b0a0a0df730"},"temperature":16,"dateTime":{"$date":"2020-06-30T14:07:57.018Z"}}
{"_id":{"$oid":"5efb474650fc9b0a0a0df731"},"temperature":16,"dateTime":{"$date":"2020-06-30T14:08:06.523Z"}}
{"_id":{"$oid":"5efb475050fc9b0a0a0df732"},"temperature":26,"dateTime":{"$date":"2020-06-30T14:08:16.598Z"}}
{"_id":{"$oid":"5efb475a50fc9b0a0a0df733"},"temperature":4,"dateTime":{"$date":"2020-06-30T14:08:26.566Z"}}
{"_id":{"$oid":"5efb476450fc9b0a0a0df734"},"temperature":2,"dateTime":{"$date":"2020-06-30T14:08:36.569Z"}}
{"_id":{"$oid":"5efb476e50fc9b0a0a0df735"},"temperature":10,"dateTime":{"$date":"2020-06-30T14:08:46.909Z"}}
{"_id":{"$oid":"5efb477950fc9b0a0a0df736"},"temperature":10,"dateTime":{"$date":"2020-06-30T14:08:57.293Z"}}
{"_id":{"$oid":"5efb478250fc9b0a0a0df737"},"temperature":5,"dateTime":{"$date":"2020-06-30T14:09:06.555Z"}}
{"_id":{"$oid":"5efb478c50fc9b0a0a0df738"},"temperature":29,"dateTime":{"$date":"2020-06-30T14:09:16.529Z"}}
{"_id":{"$oid":"5efb479750fc9b0a0a0df739"},"temperature":13,"dateTime":{"$date":"2020-06-30T14:09:27.201Z"}}
{"_id":{"$oid":"5efb47a050fc9b0a0a0df73a"},"temperature":13,"dateTime":{"$date":"2020-06-30T14:09:36.529Z"}}
{"_id":{"$oid":"5efb47aa50fc9b0a0a0df73b"},"temperature":21,"dateTime":{"$date":"2020-06-30T14:09:46.865Z"}}
{"_id":{"$oid":"5efb47b450fc9b0a0a0df73c"},"temperature":21,"dateTime":{"$date":"2020-06-30T14:09:56.550Z"}}
{"_id":{"$oid":"5efb47be50fc9b0a0a0df73d"},"temperature":28,"dateTime":{"$date":"2020-06-30T14:10:06.534Z"}}
{"_id":{"$oid":"5efb47c850fc9b0a0a0df73e"},"temperature":33,"dateTime":{"$date":"2020-06-30T14:10:16.834Z"}}
{"_id":{"$oid":"5efb47d350fc9b0a0a0df73f"},"temperature":14,"dateTime":{"$date":"2020-06-30T14:10:27.285Z"}}
{"_id":{"$oid":"5efb47dc50fc9b0a0a0df740"},"temperature":14,"dateTime":{"$date":"2020-06-30T14:10:36.781Z"}}
{"_id":{"$oid":"5efb47e650fc9b0a0a0df741"},"temperature":11,"dateTime":{"$date":"2020-06-30T14:10:46.549Z"}}
{"_id":{"$oid":"5efb47f050fc9b0a0a0df742"},"temperature":31,"dateTime":{"$date":"2020-06-30T14:10:56.581Z"}}
{"_id":{"$oid":"5efb47fa50fc9b0a0a0df743"},"temperature":0,"dateTime":{"$date":"2020-06-30T14:11:06.562Z"}}
{"_id":{"$oid":"5efb480550fc9b0a0a0df744"},"temperature":8,"dateTime":{"$date":"2020-06-30T14:11:17.229Z"}}
{"_id":{"$oid":"5efb480f50fc9b0a0a0df745"},"temperature":8,"dateTime":{"$date":"2020-06-30T14:11:27.141Z"}}
{"_id":{"$oid":"5efb481950fc9b0a0a0df746"},"temperature":39,"dateTime":{"$date":"2020-06-30T14:11:37.229Z"}}
{"_id":{"$oid":"5efb482250fc9b0a0a0df747"},"temperature":39,"dateTime":{"$date":"2020-06-30T14:11:46.574Z"}}
{"_id":{"$oid":"5efb482c50fc9b0a0a0df748"},"temperature":5,"dateTime":{"$date":"2020-06-30T14:11:56.609Z"}}
{"_id":{"$oid":"5efb483850fc9b0a0a0df749"},"temperature":31,"dateTime":{"$date":"2020-06-30T14:12:08.045Z"}}
{"_id":{"$oid":"5efb484150fc9b0a0a0df74a"},"temperature":34,"dateTime":{"$date":"2020-06-30T14:12:17.854Z"}}
{"_id":{"$oid":"5efb484b50fc9b0a0a0df74b"},"temperature":7,"dateTime":{"$date":"2020-06-30T14:12:27.721Z"}}
{"_id":{"$oid":"5efb485450fc9b0a0a0df74c"},"temperature":7,"dateTime":{"$date":"2020-06-30T14:12:36.560Z"}}
{"_id":{"$oid":"5efb485e50fc9b0a0a0df74d"},"temperature":15,"dateTime":{"$date":"2020-06-30T14:12:46.837Z"}}
{"_id":{"$oid":"5efb486950fc9b0a0a0df74e"},"temperature":17,"dateTime":{"$date":"2020-06-30T14:12:57.896Z"}}
{"_id":{"$oid":"5efb487350fc9b0a0a0df74f"},"temperature":29,"dateTime":{"$date":"2020-06-30T14:13:07.602Z"}}
{"_id":{"$oid":"5efb487c50fc9b0a0a0df750"},"temperature":29,"dateTime":{"$date":"2020-06-30T14:13:16.563Z"}}
{"_id":{"$oid":"5efb488750fc9b0a0a0df751"},"temperature":21,"dateTime":{"$date":"2020-06-30T14:13:27.146Z"}}
{"_id":{"$oid":"5efb494e50fc9b0a0a0df752"},"temperature":0,"dateTime":{"$date":"2020-06-30T14:16:46.742Z"}}
{"_id":{"$oid":"5efb4a1950fc9b0a0a0df753"},"temperature":22,"dateTime":{"$date":"2020-06-30T14:20:09.809Z"}}
{"_id":{"$oid":"5efb4a8b50fc9b0a0a0df754"},"temperature":7,"dateTime":{"$date":"2020-06-30T14:22:03.281Z"}}
{"_id":{"$oid":"5efb4a9450fc9b0a0a0df755"},"temperature":10,"dateTime":{"$date":"2020-06-30T14:22:12.077Z"}}
{"_id":{"$oid":"5efb4b0e50fc9b0a0a0df756"},"temperature":34,"dateTime":{"$date":"2020-06-30T14:24:14.486Z"}}
{"_id":{"$oid":"5efb4b8250fc9b0a0a0df757"},"temperature":30,"dateTime":{"$date":"2020-06-30T14:26:10.654Z"}}
{"_id":{"$oid":"5efb4c6650fc9b0a0a0df758"},"temperature":6,"dateTime":{"$date":"2020-06-30T14:29:58.565Z"}}
{"_id":{"$oid":"5efb4cd950fc9b0a0a0df759"},"temperature":16,"dateTime":{"$date":"2020-06-30T14:31:53.602Z"}}
{"_id":{"$oid":"5efb4d8550fc9b0a0a0df761"},"temperature":4,"dateTime":{"$date":"2020-06-30T14:34:45.237Z"}}
{"_id":{"$oid":"5efb4e7950fc9b0a0a0df775"},"temperature":0,"dateTime":{"$date":"2020-06-30T14:38:49.240Z"}}
{"_id":{"$oid":"5efb4eae50fc9b0a0a0df77a"},"temperature":16,"dateTime":{"$date":"2020-06-30T14:39:42.221Z"}}
{"_id":{"$oid":"5efb51aa50fc9b0a0a0df7b0"},"temperature":4,"dateTime":{"$date":"2020-06-30T14:52:26.705Z"}}
{"_id":{"$oid":"5efb521d50fc9b0a0a0df7bc"},"temperature":38,"dateTime":{"$date":"2020-06-30T14:54:21.469Z"}}
{"_id":{"$oid":"5efb529750fc9b0a0a0df7c6"},"temperature":26,"dateTime":{"$date":"2020-06-30T14:56:23.925Z"}}
{"_id":{"$oid":"5efb530e50fc9b0a0a0df7ce"},"temperature":23,"dateTime":{"$date":"2020-06-30T14:58:22.965Z"}}
{"_id":{"$oid":"5efb538f50fc9b0a0a0df7d9"},"temperature":25,"dateTime":{"$date":"2020-06-30T15:00:31.265Z"}}
{"_id":{"$oid":"5efb540750fc9b0a0a0df7e2"},"temperature":16,"dateTime":{"$date":"2020-06-30T15:02:31.141Z"}}
{"_id":{"$oid":"5efb547450fc9b0a0a0df7eb"},"temperature":28,"dateTime":{"$date":"2020-06-30T15:04:20.897Z"}}
{"_id":{"$oid":"5efb54ec50fc9b0a0a0df7f2"},"temperature":3,"dateTime":{"$date":"2020-06-30T15:06:20.921Z"}}
{"_id":{"$oid":"5efb556a50fc9b0a0a0df7fc"},"temperature":31,"dateTime":{"$date":"2020-06-30T15:08:26.971Z"}}
{"_id":{"$oid":"5efb55e550fc9b0a0a0df805"},"temperature":1,"dateTime":{"$date":"2020-06-30T15:10:29.172Z"}}
{"_id":{"$oid":"5efb565450fc9b0a0a0df80f"},"temperature":8,"dateTime":{"$date":"2020-06-30T15:12:20.855Z"}}
{"_id":{"$oid":"5efb56cd50fc9b0a0a0df817"},"temperature":4,"dateTime":{"$date":"2020-06-30T15:14:21.236Z"}}
{"_id":{"$oid":"5efb575850fc9b0a0a0df821"},"temperature":33,"dateTime":{"$date":"2020-06-30T15:16:40.937Z"}}
{"_id":{"$oid":"5efb57bc50fc9b0a0a0df827"},"temperature":37,"dateTime":{"$date":"2020-06-30T15:18:20.859Z"}}
{"_id":{"$oid":"5efb586850fc9b0a0a0df835"},"temperature":15,"dateTime":{"$date":"2020-06-30T15:21:12.222Z"}}
{"_id":{"$oid":"5efb58e450fc9b0a0a0df83e"},"temperature":10,"dateTime":{"$date":"2020-06-30T15:23:16.258Z"}}
{"_id":{"$oid":"5efb5a5450fc9b0a0a0df84c"},"temperature":32,"dateTime":{"$date":"2020-06-30T15:29:24.299Z"}}
{"_id":{"$oid":"5efb5ac250fc9b0a0a0df852"},"temperature":13,"dateTime":{"$date":"2020-06-30T15:31:14.782Z"}}
{"_id":{"$oid":"5efb5b3750fc9b0a0a0df857"},"temperature":21,"dateTime":{"$date":"2020-06-30T15:33:11.669Z"}}
{"_id":{"$oid":"5efb5b9e50fc9b0a0a0df860"},"temperature":31,"dateTime":{"$date":"2020-06-30T15:34:54.468Z"}}
{"_id":{"$oid":"5efc8f119fac69097159f229"},"temperature":34,"dateTime":{"$date":"2020-07-01T13:26:41.409Z"}}
{"_id":{"$oid":"5efc8f899fac69097159f233"},"temperature":33,"dateTime":{"$date":"2020-07-01T13:28:41.240Z"}}
{"_id":{"$oid":"5efc90019fac69097159f23e"},"temperature":39,"dateTime":{"$date":"2020-07-01T13:30:41.387Z"}}
{"_id":{"$oid":"5efc90799fac69097159f24b"},"temperature":28,"dateTime":{"$date":"2020-07-01T13:32:41.476Z"}}
{"_id":{"$oid":"5efc90f19fac69097159f253"},"temperature":15,"dateTime":{"$date":"2020-07-01T13:34:41.116Z"}}
{"_id":{"$oid":"5efc916a9fac69097159f25d"},"temperature":24,"dateTime":{"$date":"2020-07-01T13:36:42.252Z"}}
{"_id":{"$oid":"5efc91e19fac69097159f266"},"temperature":35,"dateTime":{"$date":"2020-07-01T13:38:41.592Z"}}
{"_id":{"$oid":"5efc928f9fac69097159f276"},"temperature":31,"dateTime":{"$date":"2020-07-01T13:41:35.017Z"}}
{"_id":{"$oid":"5efc93099fac69097159f281"},"temperature":18,"dateTime":{"$date":"2020-07-01T13:43:37.748Z"}}
{"_id":{"$oid":"5efc93829fac69097159f28d"},"temperature":0,"dateTime":{"$date":"2020-07-01T13:45:38.182Z"}}
{"_id":{"$oid":"5efc9c649fac69097159f29b"},"temperature":1,"dateTime":{"$date":"2020-07-01T14:23:32.248Z"}}
{"_id":{"$oid":"5efc9d449fac69097159f2a5"},"temperature":29,"dateTime":{"$date":"2020-07-01T14:27:16.334Z"}}
{"_id":{"$oid":"5efc9dd59fac69097159f2a6"},"temperature":32,"dateTime":{"$date":"2020-07-01T14:29:41.296Z"}}
{"_id":{"$oid":"5efc9e8e9fac69097159f2a7"},"temperature":7,"dateTime":{"$date":"2020-07-01T14:32:46.536Z"}}
{"_id":{"$oid":"5efc9f079fac69097159f2a8"},"temperature":35,"dateTime":{"$date":"2020-07-01T14:34:47.588Z"}}
{"_id":{"$oid":"5efc9f809fac69097159f2a9"},"temperature":29,"dateTime":{"$date":"2020-07-01T14:36:48.551Z"}}
{"_id":{"$oid":"5f007610b44c6e0ffef101bc"},"temperature":17,"dateTime":{"$date":"2020-07-04T12:29:04.901Z"}}
{"_id":{"$oid":"5f00761fb44c6e0ffef101be"},"temperature":31,"dateTime":{"$date":"2020-07-04T12:29:19.624Z"}}
{"_id":{"$oid":"5f0076e8b44c6e0ffef101cd"},"temperature":10,"dateTime":{"$date":"2020-07-04T12:32:40.468Z"}}
{"_id":{"$oid":"5f00779db44c6e0ffef101d8"},"temperature":25,"dateTime":{"$date":"2020-07-04T12:35:41.512Z"}}
{"_id":{"$oid":"5f007814b44c6e0ffef101e4"},"temperature":9,"dateTime":{"$date":"2020-07-04T12:37:40.054Z"}}
{"_id":{"$oid":"5f00788cb44c6e0ffef101ed"},"temperature":23,"dateTime":{"$date":"2020-07-04T12:39:40.584Z"}}
{"_id":{"$oid":"5f00797cb44c6e0ffef10202"},"temperature":3,"dateTime":{"$date":"2020-07-04T12:43:40.034Z"}}
{"_id":{"$oid":"5f0079f4b44c6e0ffef1020e"},"temperature":22,"dateTime":{"$date":"2020-07-04T12:45:40.633Z"}}
{"_id":{"$oid":"5f007a6cb44c6e0ffef10216"},"temperature":38,"dateTime":{"$date":"2020-07-04T12:47:40.582Z"}}
{"_id":{"$oid":"5f007ae4b44c6e0ffef10221"},"temperature":21,"dateTime":{"$date":"2020-07-04T12:49:40.124Z"}}
{"_id":{"$oid":"5f007c46b44c6e0ffef10240"},"temperature":20,"dateTime":{"$date":"2020-07-04T12:55:34.257Z"}}
{"_id":{"$oid":"5f007cddb44c6e0ffef10251"},"temperature":25,"dateTime":{"$date":"2020-07-04T12:58:05.559Z"}}
{"_id":{"$oid":"5f007e45b44c6e0ffef1026d"},"temperature":8,"dateTime":{"$date":"2020-07-04T13:04:05.424Z"}}
{"_id":{"$oid":"5f007fadb44c6e0ffef10276"},"temperature":39,"dateTime":{"$date":"2020-07-04T13:10:05.400Z"}}
{"_id":{"$oid":"5f0080c0b44c6e0ffef10286"},"temperature":28,"dateTime":{"$date":"2020-07-04T13:14:40.325Z"}}
{"_id":{"$oid":"5f008139b44c6e0ffef10290"},"temperature":14,"dateTime":{"$date":"2020-07-04T13:16:41.300Z"}}
{"_id":{"$oid":"5f0081b1b44c6e0ffef1029d"},"temperature":22,"dateTime":{"$date":"2020-07-04T13:18:41.376Z"}}
{"_id":{"$oid":"5f008228b44c6e0ffef102a5"},"temperature":33,"dateTime":{"$date":"2020-07-04T13:20:40.314Z"}}
{"_id":{"$oid":"5f0082a1b44c6e0ffef102b1"},"temperature":37,"dateTime":{"$date":"2020-07-04T13:22:41.660Z"}}
{"_id":{"$oid":"5f00964eddf6e40981b9ca71"},"temperature":21,"dateTime":{"$date":"2020-07-04T14:46:38.197Z"}}
{"_id":{"$oid":"5f0096e3ddf6e40981b9ca74"},"temperature":36,"dateTime":{"$date":"2020-07-04T14:49:07.735Z"}}
{"_id":{"$oid":"5f00971fddf6e40981b9ca77"},"temperature":2,"dateTime":{"$date":"2020-07-04T14:50:07.824Z"}}
{"_id":{"$oid":"5f009791ddf6e40981b9ca78"},"temperature":2,"dateTime":{"$date":"2020-07-04T14:52:01.186Z"}}
{"_id":{"$oid":"5f0097cdddf6e40981b9ca7a"},"temperature":32,"dateTime":{"$date":"2020-07-04T14:53:01.624Z"}}
{"_id":{"$oid":"5f009810ddf6e40981b9ca7c"},"temperature":38,"dateTime":{"$date":"2020-07-04T14:54:08.165Z"}}
{"_id":{"$oid":"5f00985eddf6e40981b9ca7e"},"temperature":1,"dateTime":{"$date":"2020-07-04T14:55:26.424Z"}}
{"_id":{"$oid":"5f00989dddf6e40981b9ca82"},"temperature":37,"dateTime":{"$date":"2020-07-04T14:56:29.840Z"}}
{"_id":{"$oid":"5f009907ddf6e40981b9ca8d"},"temperature":14,"dateTime":{"$date":"2020-07-04T14:58:15.588Z"}}
{"_id":{"$oid":"5f009998ddf6e40981b9ca91"},"temperature":0,"dateTime":{"$date":"2020-07-04T15:00:40.783Z"}}
{"_id":{"$oid":"5f0099efddf6e40981b9ca95"},"temperature":12,"dateTime":{"$date":"2020-07-04T15:02:07.360Z"}}
{"_id":{"$oid":"5f009a54ddf6e40981b9ca98"},"temperature":5,"dateTime":{"$date":"2020-07-04T15:03:48.341Z"}}
{"_id":{"$oid":"5f00d5626dab8d09e2fbc812"},"temperature":0,"dateTime":{"$date":"2020-07-04T19:15:46.331Z"}}
{"_id":{"$oid":"5f00d59e6dab8d09e2fbc813"},"temperature":17,"dateTime":{"$date":"2020-07-04T19:16:46.400Z"}}
{"_id":{"$oid":"5f00d5da6dab8d09e2fbc816"},"temperature":3,"dateTime":{"$date":"2020-07-04T19:17:46.433Z"}}
{"_id":{"$oid":"5f00d6166dab8d09e2fbc817"},"temperature":39,"dateTime":{"$date":"2020-07-04T19:18:46.793Z"}}
{"_id":{"$oid":"5f00d6526dab8d09e2fbc819"},"temperature":32,"dateTime":{"$date":"2020-07-04T19:19:46.793Z"}}
{"_id":{"$oid":"5f00d68e6dab8d09e2fbc81c"},"temperature":33,"dateTime":{"$date":"2020-07-04T19:20:46.381Z"}}
{"_id":{"$oid":"5f00d6d46dab8d09e2fbc820"},"temperature":10,"dateTime":{"$date":"2020-07-04T19:21:56.433Z"}}
{"_id":{"$oid":"5f00d7106dab8d09e2fbc821"},"temperature":0,"dateTime":{"$date":"2020-07-04T19:22:56.117Z"}}
{"_id":{"$oid":"5f00d7886dab8d09e2fbc823"},"temperature":0,"dateTime":{"$date":"2020-07-04T19:24:56.177Z"}}
{"_id":{"$oid":"5f00d7c46dab8d09e2fbc826"},"temperature":34,"dateTime":{"$date":"2020-07-04T19:25:56.199Z"}}
{"_id":{"$oid":"5f00d8006dab8d09e2fbc828"},"temperature":9,"dateTime":{"$date":"2020-07-04T19:26:56.189Z"}}
{"_id":{"$oid":"5f00d83c6dab8d09e2fbc82b"},"temperature":23,"dateTime":{"$date":"2020-07-04T19:27:56.142Z"}}
{"_id":{"$oid":"5f034f218a46d80dca5aff69"},"temperature":0,"dateTime":{"$date":"2020-07-06T16:19:45.761Z"}}
{"_id":{"$oid":"5f034f5d8a46d80dca5aff6c"},"temperature":13,"dateTime":{"$date":"2020-07-06T16:20:45.657Z"}}
{"_id":{"$oid":"5f034f998a46d80dca5aff6f"},"temperature":31,"dateTime":{"$date":"2020-07-06T16:21:45.928Z"}}
{"_id":{"$oid":"5f034fd58a46d80dca5aff72"},"temperature":31,"dateTime":{"$date":"2020-07-06T16:22:45.731Z"}}
{"_id":{"$oid":"5f0350118a46d80dca5aff75"},"temperature":37,"dateTime":{"$date":"2020-07-06T16:23:45.870Z"}}
{"_id":{"$oid":"5f03504d8a46d80dca5aff78"},"temperature":7,"dateTime":{"$date":"2020-07-06T16:24:45.871Z"}}
{"_id":{"$oid":"5f0350898a46d80dca5aff7b"},"temperature":7,"dateTime":{"$date":"2020-07-06T16:25:45.696Z"}}
{"_id":{"$oid":"5f0350c58a46d80dca5aff7d"},"temperature":39,"dateTime":{"$date":"2020-07-06T16:26:45.731Z"}}
{"_id":{"$oid":"5f0351028a46d80dca5aff80"},"temperature":36,"dateTime":{"$date":"2020-07-06T16:27:46.145Z"}}
{"_id":{"$oid":"5f048d4879015e155f7a8b64"},"temperature":0,"dateTime":{"$date":"2020-07-07T14:57:12.618Z"}}
{"_id":{"$oid":"5f048d8479015e155f7a8b65"},"temperature":34,"dateTime":{"$date":"2020-07-07T14:58:12.642Z"}}
{"_id":{"$oid":"5f048dc079015e155f7a8b68"},"temperature":5,"dateTime":{"$date":"2020-07-07T14:59:12.812Z"}}
{"_id":{"$oid":"5f048dfc79015e155f7a8b6b"},"temperature":5,"dateTime":{"$date":"2020-07-07T15:00:12.638Z"}}
{"_id":{"$oid":"5f048e3879015e155f7a8b6e"},"temperature":24,"dateTime":{"$date":"2020-07-07T15:01:12.679Z"}}
{"_id":{"$oid":"5f048e7479015e155f7a8b70"},"temperature":24,"dateTime":{"$date":"2020-07-07T15:02:12.710Z"}}
{"_id":{"$oid":"5f048eb079015e155f7a8b73"},"temperature":18,"dateTime":{"$date":"2020-07-07T15:03:12.919Z"}}
{"_id":{"$oid":"5f048eec79015e155f7a8b76"},"temperature":18,"dateTime":{"$date":"2020-07-07T15:04:12.726Z"}}
{"_id":{"$oid":"5f048f2879015e155f7a8b79"},"temperature":19,"dateTime":{"$date":"2020-07-07T15:05:12.738Z"}}
{"_id":{"$oid":"5f048f6479015e155f7a8b7c"},"temperature":13,"dateTime":{"$date":"2020-07-07T15:06:12.954Z"}}
{"_id":{"$oid":"5f048fa079015e155f7a8b7e"},"temperature":1,"dateTime":{"$date":"2020-07-07T15:07:12.807Z"}}
{"_id":{"$oid":"5f048fe279015e155f7a8b80"},"temperature":32,"dateTime":{"$date":"2020-07-07T15:08:18.481Z"}}
{"_id":{"$oid":"5f04905679015e155f7a8b84"},"temperature":37,"dateTime":{"$date":"2020-07-07T15:10:14.056Z"}}
{"_id":{"$oid":"5f04907579015e155f7a8b86"},"temperature":29,"dateTime":{"$date":"2020-07-07T15:10:45.586Z"}}
{"_id":{"$oid":"5f0490af79015e155f7a8b87"},"temperature":29,"dateTime":{"$date":"2020-07-07T15:11:43.827Z"}}
{"_id":{"$oid":"5f0490d679015e155f7a8b88"},"temperature":24,"dateTime":{"$date":"2020-07-07T15:12:22.168Z"}}
{"_id":{"$oid":"5f04911279015e155f7a8b8b"},"temperature":0,"dateTime":{"$date":"2020-07-07T15:13:22.540Z"}}
{"_id":{"$oid":"5f04913479015e155f7a8b8d"},"temperature":0,"dateTime":{"$date":"2020-07-07T15:13:56.730Z"}}
{"_id":{"$oid":"5f04918179015e155f7a8b8f"},"temperature":31,"dateTime":{"$date":"2020-07-07T15:15:13.390Z"}}
{"_id":{"$oid":"5f0491c379015e155f7a8b91"},"temperature":31,"dateTime":{"$date":"2020-07-07T15:16:19.160Z"}}
{"_id":{"$oid":"5f04921379015e155f7a8b93"},"temperature":6,"dateTime":{"$date":"2020-07-07T15:17:39.815Z"}}
{"_id":{"$oid":"5f04924f79015e155f7a8b96"},"temperature":6,"dateTime":{"$date":"2020-07-07T15:18:39.253Z"}}
{"_id":{"$oid":"5f04928a79015e155f7a8b97"},"temperature":17,"dateTime":{"$date":"2020-07-07T15:19:38.854Z"}}
{"_id":{"$oid":"5f0492c879015e155f7a8b9a"},"temperature":2,"dateTime":{"$date":"2020-07-07T15:20:40.465Z"}}
{"_id":{"$oid":"5f04930179015e155f7a8b9b"},"temperature":2,"dateTime":{"$date":"2020-07-07T15:21:37.945Z"}}
{"_id":{"$oid":"5f04933d79015e155f7a8b9e"},"temperature":25,"dateTime":{"$date":"2020-07-07T15:22:37.937Z"}}
{"_id":{"$oid":"5f04937c79015e155f7a8ba2"},"temperature":13,"dateTime":{"$date":"2020-07-07T15:23:40.296Z"}}
{"_id":{"$oid":"5f0493b579015e155f7a8ba4"},"temperature":13,"dateTime":{"$date":"2020-07-07T15:24:37.957Z"}}
{"_id":{"$oid":"5f0493f479015e155f7a8ba7"},"temperature":16,"dateTime":{"$date":"2020-07-07T15:25:40.694Z"}}
{"_id":{"$oid":"5f04942f79015e155f7a8baa"},"temperature":32,"dateTime":{"$date":"2020-07-07T15:26:39.210Z"}}
{"_id":{"$oid":"5f04946a79015e155f7a8bac"},"temperature":32,"dateTime":{"$date":"2020-07-07T15:27:38.084Z"}}
{"_id":{"$oid":"5f0494c579015e155f7a8baf"},"temperature":37,"dateTime":{"$date":"2020-07-07T15:29:09.078Z"}}
{"_id":{"$oid":"5f04950479015e155f7a8bb1"},"temperature":0,"dateTime":{"$date":"2020-07-07T15:30:12.400Z"}}
{"_id":{"$oid":"5f04953c79015e155f7a8bb4"},"temperature":0,"dateTime":{"$date":"2020-07-07T15:31:08.644Z"}}
{"_id":{"$oid":"5f04957879015e155f7a8bb7"},"temperature":4,"dateTime":{"$date":"2020-07-07T15:32:08.626Z"}}
{"_id":{"$oid":"5f0495b479015e155f7a8bba"},"temperature":35,"dateTime":{"$date":"2020-07-07T15:33:08.676Z"}}
{"_id":{"$oid":"5f0495f079015e155f7a8bbd"},"temperature":20,"dateTime":{"$date":"2020-07-07T15:34:08.645Z"}}
{"_id":{"$oid":"5f04962c79015e155f7a8bbe"},"temperature":13,"dateTime":{"$date":"2020-07-07T15:35:08.622Z"}}
{"_id":{"$oid":"5f04966879015e155f7a8bc1"},"temperature":7,"dateTime":{"$date":"2020-07-07T15:36:08.630Z"}}
{"_id":{"$oid":"5f0496a579015e155f7a8bc4"},"temperature":6,"dateTime":{"$date":"2020-07-07T15:37:09.362Z"}}
{"_id":{"$oid":"5f0496e079015e155f7a8bc6"},"temperature":30,"dateTime":{"$date":"2020-07-07T15:38:08.922Z"}}
{"_id":{"$oid":"5f04972579015e155f7a8bc9"},"temperature":39,"dateTime":{"$date":"2020-07-07T15:39:17.833Z"}}
{"_id":{"$oid":"5f04975c79015e155f7a8bcb"},"temperature":5,"dateTime":{"$date":"2020-07-07T15:40:12.318Z"}}
{"_id":{"$oid":"5f04979679015e155f7a8bce"},"temperature":11,"dateTime":{"$date":"2020-07-07T15:41:10.686Z"}}
{"_id":{"$oid":"5f0497d079015e155f7a8bd0"},"temperature":11,"dateTime":{"$date":"2020-07-07T15:42:08.658Z"}}
{"_id":{"$oid":"5f04980c79015e155f7a8bd1"},"temperature":29,"dateTime":{"$date":"2020-07-07T15:43:08.887Z"}}
{"_id":{"$oid":"5f04984b79015e155f7a8bd3"},"temperature":7,"dateTime":{"$date":"2020-07-07T15:44:11.137Z"}}
{"_id":{"$oid":"5f04988479015e155f7a8bd6"},"temperature":7,"dateTime":{"$date":"2020-07-07T15:45:08.702Z"}}
{"_id":{"$oid":"5f0498c079015e155f7a8bd7"},"temperature":21,"dateTime":{"$date":"2020-07-07T15:46:08.665Z"}}
{"_id":{"$oid":"5f0498fc79015e155f7a8bd9"},"temperature":9,"dateTime":{"$date":"2020-07-07T15:47:08.645Z"}}
{"_id":{"$oid":"5f04993e79015e155f7a8bdd"},"temperature":4,"dateTime":{"$date":"2020-07-07T15:48:14.555Z"}}
{"_id":{"$oid":"5f04997479015e155f7a8bdf"},"temperature":4,"dateTime":{"$date":"2020-07-07T15:49:08.669Z"}}
{"_id":{"$oid":"5f0499b779015e155f7a8be3"},"temperature":2,"dateTime":{"$date":"2020-07-07T15:50:15.015Z"}}
{"_id":{"$oid":"5f0499f079015e155f7a8be6"},"temperature":16,"dateTime":{"$date":"2020-07-07T15:51:12.673Z"}}
{"_id":{"$oid":"5f049a2879015e155f7a8be8"},"temperature":16,"dateTime":{"$date":"2020-07-07T15:52:08.734Z"}}
{"_id":{"$oid":"5f049a6479015e155f7a8beb"},"temperature":27,"dateTime":{"$date":"2020-07-07T15:53:08.734Z"}}
{"_id":{"$oid":"5f049aa379015e155f7a8bef"},"temperature":29,"dateTime":{"$date":"2020-07-07T15:54:11.390Z"}}
{"_id":{"$oid":"5f049adc79015e155f7a8bf0"},"temperature":29,"dateTime":{"$date":"2020-07-07T15:55:08.735Z"}}
{"_id":{"$oid":"5f049b1879015e155f7a8bf2"},"temperature":32,"dateTime":{"$date":"2020-07-07T15:56:08.787Z"}}
{"_id":{"$oid":"5f049b5a79015e155f7a8bf5"},"temperature":11,"dateTime":{"$date":"2020-07-07T15:57:14.949Z"}}
{"_id":{"$oid":"5f049b9079015e155f7a8bf7"},"temperature":11,"dateTime":{"$date":"2020-07-07T15:58:08.750Z"}}
{"_id":{"$oid":"5f049bcc79015e155f7a8bfa"},"temperature":25,"dateTime":{"$date":"2020-07-07T15:59:08.814Z"}}
{"_id":{"$oid":"5f049c0e79015e155f7a8bfc"},"temperature":19,"dateTime":{"$date":"2020-07-07T16:00:14.121Z"}}
{"_id":{"$oid":"5f049c4479015e155f7a8bfe"},"temperature":19,"dateTime":{"$date":"2020-07-07T16:01:08.858Z"}}
{"_id":{"$oid":"5f049c8579015e155f7a8c01"},"temperature":32,"dateTime":{"$date":"2020-07-07T16:02:13.712Z"}}
{"_id":{"$oid":"5f049cc379015e155f7a8c02"},"temperature":10,"dateTime":{"$date":"2020-07-07T16:03:15.798Z"}}
{"_id":{"$oid":"5f049d0079015e155f7a8c03"},"temperature":38,"dateTime":{"$date":"2020-07-07T16:04:16.584Z"}}
{"_id":{"$oid":"5f049d4079015e155f7a8c04"},"temperature":38,"dateTime":{"$date":"2020-07-07T16:05:20.842Z"}}
{"_id":{"$oid":"5f049d7779015e155f7a8c06"},"temperature":26,"dateTime":{"$date":"2020-07-07T16:06:15.552Z"}}
{"_id":{"$oid":"5f049db679015e155f7a8c08"},"temperature":26,"dateTime":{"$date":"2020-07-07T16:07:18.452Z"}}
{"_id":{"$oid":"5f049ded79015e155f7a8c0a"},"temperature":2,"dateTime":{"$date":"2020-07-07T16:08:13.655Z"}}
{"_id":{"$oid":"5f049e2f79015e155f7a8c0c"},"temperature":10,"dateTime":{"$date":"2020-07-07T16:09:19.254Z"}}
{"_id":{"$oid":"5f049e6979015e155f7a8c0e"},"temperature":11,"dateTime":{"$date":"2020-07-07T16:10:17.860Z"}}
{"_id":{"$oid":"5f049e9c79015e155f7a8c10"},"temperature":8,"dateTime":{"$date":"2020-07-07T16:11:08.954Z"}}
{"_id":{"$oid":"5f049eea79015e155f7a8c13"},"temperature":1,"dateTime":{"$date":"2020-07-07T16:12:26.743Z"}}
{"_id":{"$oid":"5f049f1a79015e155f7a8c16"},"temperature":30,"dateTime":{"$date":"2020-07-07T16:13:14.439Z"}}
{"_id":{"$oid":"5f049f5179015e155f7a8c18"},"temperature":36,"dateTime":{"$date":"2020-07-07T16:14:09.379Z"}}
{"_id":{"$oid":"5f049f8c79015e155f7a8c1a"},"temperature":36,"dateTime":{"$date":"2020-07-07T16:15:08.778Z"}}
{"_id":{"$oid":"5f049fc879015e155f7a8c1c"},"temperature":34,"dateTime":{"$date":"2020-07-07T16:16:08.789Z"}}
{"_id":{"$oid":"5f04a00979015e155f7a8c1f"},"temperature":31,"dateTime":{"$date":"2020-07-07T16:17:13.970Z"}}
{"_id":{"$oid":"5f04a04179015e155f7a8c20"},"temperature":31,"dateTime":{"$date":"2020-07-07T16:18:09.043Z"}}
{"_id":{"$oid":"5f04a07d79015e155f7a8c22"},"temperature":2,"dateTime":{"$date":"2020-07-07T16:19:09.707Z"}}
{"_id":{"$oid":"5f04a0b979015e155f7a8c24"},"temperature":2,"dateTime":{"$date":"2020-07-07T16:20:09.369Z"}}
{"_id":{"$oid":"5f04a0f479015e155f7a8c26"},"temperature":29,"dateTime":{"$date":"2020-07-07T16:21:08.835Z"}}
{"_id":{"$oid":"5f04a13079015e155f7a8c27"},"temperature":15,"dateTime":{"$date":"2020-07-07T16:22:08.810Z"}}
{"_id":{"$oid":"5f04a17679015e155f7a8c29"},"temperature":30,"dateTime":{"$date":"2020-07-07T16:23:18.429Z"}}
{"_id":{"$oid":"5f04a1b179015e155f7a8c2b"},"temperature":5,"dateTime":{"$date":"2020-07-07T16:24:17.885Z"}}
{"_id":{"$oid":"5f04a1e579015e155f7a8c2d"},"temperature":20,"dateTime":{"$date":"2020-07-07T16:25:09.185Z"}}
{"_id":{"$oid":"5f04a22e79015e155f7a8c30"},"temperature":21,"dateTime":{"$date":"2020-07-07T16:26:22.745Z"}}
{"_id":{"$oid":"5f04a25c79015e155f7a8c33"},"temperature":21,"dateTime":{"$date":"2020-07-07T16:27:08.963Z"}}
{"_id":{"$oid":"5f04a29f79015e155f7a8c36"},"temperature":21,"dateTime":{"$date":"2020-07-07T16:28:15.998Z"}}
{"_id":{"$oid":"5f04a2dc79015e155f7a8c3a"},"temperature":14,"dateTime":{"$date":"2020-07-07T16:29:16.598Z"}}
{"_id":{"$oid":"5f04a31979015e155f7a8c3d"},"temperature":23,"dateTime":{"$date":"2020-07-07T16:30:17.625Z"}}
{"_id":{"$oid":"5f04a34f79015e155f7a8c40"},"temperature":39,"dateTime":{"$date":"2020-07-07T16:31:11.445Z"}}
{"_id":{"$oid":"5f04a39679015e155f7a8c42"},"temperature":2,"dateTime":{"$date":"2020-07-07T16:32:22.423Z"}}
{"_id":{"$oid":"5f04a3ce79015e155f7a8c44"},"temperature":23,"dateTime":{"$date":"2020-07-07T16:33:18.765Z"}}
{"_id":{"$oid":"5f04a40079015e155f7a8c46"},"temperature":23,"dateTime":{"$date":"2020-07-07T16:34:08.894Z"}}
{"_id":{"$oid":"5f04a43c79015e155f7a8c49"},"temperature":18,"dateTime":{"$date":"2020-07-07T16:35:08.882Z"}}
{"_id":{"$oid":"5f04a47f79015e155f7a8c4c"},"temperature":18,"dateTime":{"$date":"2020-07-07T16:36:15.615Z"}}
{"_id":{"$oid":"5f04a4bb79015e155f7a8c4e"},"temperature":18,"dateTime":{"$date":"2020-07-07T16:37:15.027Z"}}
{"_id":{"$oid":"5f04a4f079015e155f7a8c51"},"temperature":11,"dateTime":{"$date":"2020-07-07T16:38:08.894Z"}}
{"_id":{"$oid":"5f0b70cefe590c0a58edd6c0"},"temperature":0,"dateTime":{"$date":"2020-07-12T20:21:34.677Z"}}
{"_id":{"$oid":"5f0b710afe590c0a58edd6c4"},"temperature":9,"dateTime":{"$date":"2020-07-12T20:22:34.678Z"}}
{"_id":{"$oid":"5f0b7146fe590c0a58edd6c6"},"temperature":33,"dateTime":{"$date":"2020-07-12T20:23:34.704Z"}}
{"_id":{"$oid":"5f0b7182fe590c0a58edd6c8"},"temperature":10,"dateTime":{"$date":"2020-07-12T20:24:34.675Z"}}
{"_id":{"$oid":"5f0b71befe590c0a58edd6cb"},"temperature":33,"dateTime":{"$date":"2020-07-12T20:25:34.749Z"}}
{"_id":{"$oid":"5f0b71fafe590c0a58edd6ce"},"temperature":1,"dateTime":{"$date":"2020-07-12T20:26:34.700Z"}}
{"_id":{"$oid":"5f0b7237fe590c0a58edd6d1"},"temperature":21,"dateTime":{"$date":"2020-07-12T20:27:35.173Z"}}
{"_id":{"$oid":"5f0b7272fe590c0a58edd6d4"},"temperature":21,"dateTime":{"$date":"2020-07-12T20:28:34.687Z"}}
{"_id":{"$oid":"5f0b72aefe590c0a58edd6d7"},"temperature":21,"dateTime":{"$date":"2020-07-12T20:29:34.694Z"}}
{"_id":{"$oid":"5f0b72eafe590c0a58edd6d9"},"temperature":12,"dateTime":{"$date":"2020-07-12T20:30:34.684Z"}}
{"_id":{"$oid":"5f0b7327fe590c0a58edd6dc"},"temperature":14,"dateTime":{"$date":"2020-07-12T20:31:35.388Z"}}
{"_id":{"$oid":"5f0b7363fe590c0a58edd6e0"},"temperature":28,"dateTime":{"$date":"2020-07-12T20:32:35.773Z"}}
{"_id":{"$oid":"5f0b739efe590c0a58edd6e2"},"temperature":28,"dateTime":{"$date":"2020-07-12T20:33:34.679Z"}}
{"_id":{"$oid":"5f0b73dafe590c0a58edd6e5"},"temperature":36,"dateTime":{"$date":"2020-07-12T20:34:34.870Z"}}
{"_id":{"$oid":"5f0b7417fe590c0a58edd6e8"},"temperature":30,"dateTime":{"$date":"2020-07-12T20:35:35.353Z"}}
{"_id":{"$oid":"5f0b7453fe590c0a58edd6e9"},"temperature":19,"dateTime":{"$date":"2020-07-12T20:36:35.188Z"}}
{"_id":{"$oid":"5f0b748ffe590c0a58edd6ed"},"temperature":37,"dateTime":{"$date":"2020-07-12T20:37:35.228Z"}}
{"_id":{"$oid":"5f0b74cbfe590c0a58edd6ef"},"temperature":37,"dateTime":{"$date":"2020-07-12T20:38:35.155Z"}}
{"_id":{"$oid":"5f0b7506fe590c0a58edd6f2"},"temperature":22,"dateTime":{"$date":"2020-07-12T20:39:34.731Z"}}
{"_id":{"$oid":"5f0b7542fe590c0a58edd6f5"},"temperature":29,"dateTime":{"$date":"2020-07-12T20:40:34.960Z"}}
{"_id":{"$oid":"5f0b757ffe590c0a58edd6f7"},"temperature":15,"dateTime":{"$date":"2020-07-12T20:41:35.148Z"}}
{"_id":{"$oid":"5f0b75bbfe590c0a58edd6f9"},"temperature":0,"dateTime":{"$date":"2020-07-12T20:42:35.328Z"}}
{"_id":{"$oid":"5f0b75f6fe590c0a58edd6fc"},"temperature":0,"dateTime":{"$date":"2020-07-12T20:43:34.815Z"}}
{"_id":{"$oid":"5f0b7634fe590c0a58edd6fd"},"temperature":31,"dateTime":{"$date":"2020-07-12T20:44:36.080Z"}}
{"_id":{"$oid":"5f0b7670fe590c0a58edd700"},"temperature":33,"dateTime":{"$date":"2020-07-12T20:45:36.211Z"}}
{"_id":{"$oid":"5f0b76aafe590c0a58edd703"},"temperature":33,"dateTime":{"$date":"2020-07-12T20:46:34.733Z"}}
{"_id":{"$oid":"5f0b76e8fe590c0a58edd705"},"temperature":36,"dateTime":{"$date":"2020-07-12T20:47:36.958Z"}}
{"_id":{"$oid":"5f0b7722fe590c0a58edd708"},"temperature":36,"dateTime":{"$date":"2020-07-12T20:48:34.753Z"}}
{"_id":{"$oid":"5f0b7762fe590c0a58edd70b"},"temperature":33,"dateTime":{"$date":"2020-07-12T20:49:38.072Z"}}
{"_id":{"$oid":"5f0b779cfe590c0a58edd70f"},"temperature":24,"dateTime":{"$date":"2020-07-12T20:50:36.775Z"}}
{"_id":{"$oid":"5f0b77d8fe590c0a58edd711"},"temperature":16,"dateTime":{"$date":"2020-07-12T20:51:36.084Z"}}
{"_id":{"$oid":"5f0b7812fe590c0a58edd713"},"temperature":16,"dateTime":{"$date":"2020-07-12T20:52:34.800Z"}}
{"_id":{"$oid":"5f0b784efe590c0a58edd716"},"temperature":10,"dateTime":{"$date":"2020-07-12T20:53:34.812Z"}}
{"_id":{"$oid":"5f0b7892fe590c0a58edd719"},"temperature":5,"dateTime":{"$date":"2020-07-12T20:54:42.103Z"}}
{"_id":{"$oid":"5f0b78c6fe590c0a58edd71b"},"temperature":5,"dateTime":{"$date":"2020-07-12T20:55:34.884Z"}}
{"_id":{"$oid":"5f0b7905fe590c0a58edd71e"},"temperature":28,"dateTime":{"$date":"2020-07-12T20:56:37.575Z"}}
{"_id":{"$oid":"5f0b7941fe590c0a58edd721"},"temperature":5,"dateTime":{"$date":"2020-07-12T20:57:37.271Z"}}
{"_id":{"$oid":"5f0b797afe590c0a58edd723"},"temperature":5,"dateTime":{"$date":"2020-07-12T20:58:34.755Z"}}
{"_id":{"$oid":"5f0b79bbfe590c0a58edd726"},"temperature":38,"dateTime":{"$date":"2020-07-12T20:59:39.978Z"}}
